,smiles,ensemble_crest,N1_idx,C2_idx,H3_idx,H4_idx,dipole_amine,E (HOMO)_amine,E (LUMO)_amine,NBO-N1_amine,NBO-H2_amine,NBO-H3_amine,NBO-C4_amine,delta_NBO-H2-H3_amine,ave_NBO-H2-H3_amine,NMR-N1_amine,NMR-H2_amine,NMR-H3_amine,NMR-C4_amine,delta_NMR-H2-H3_amine,ave_NMR-H2-H3_amine,pyramidalization N1 (1st)_anion,lone-pair-N1_anion,angle-H2-N1-H3_amine,angle-C4-N1-H2_amine,angle-C4-N1-H3_amine,delta_angle-C4-N1-H2_C4-N1-H3_amine,ave_angle-C4-N1-H2_C4-N1-H3_amine,Sterimol-L-N1-C4_amine,Sterimol-B1-N1-C4_amine,Sterimol-B5-N1-C4_amine,IR-freq-N-H_sym-stretch _amine,IR-int-N-H_sym-stretch _amine,IR-freq-N-H_asym-stretch_amine,IR-int-N-H_asym-stretch_amine,IR-freq-N-H_bend_amine,IR-int-N-H_bend_amine,Vbur-2.5A_amine
0,COCCN,ConformerEnsemble(9 conformers),1,2,6,7,2.761552784,-0.305387497,0.003743175,-0.888751717,0.368688982,0.364646432,-0.214328715,0.004952024,0.366667707,239.0567737,30.72121434,31.40493611,142.8394263,0.924501992,31.06307523,0.77296372,-0.377147377,107.1599269,110.0119254,110.8261453,1.057462993,110.4190353,4.683213568,1.741608587,5.249352941,3499.003928,0.87663235,3577.986452,3.474299799,1666.330071,29.49700473,48.78490114
1,NCC1CCCCC1,ConformerEnsemble(4 conformers),1,2,9,10,1.912229795,-0.297180357,0.004167743,-0.889124441,0.364084069,0.363438991,-0.184426268,0.000645078,0.36376153,240.0449321,30.92042472,31.58511463,134.8748925,0.664689913,31.25276968,0.754605614,-0.369754559,107.3487459,111.426426,111.1064082,0.320017797,111.2664171,6.079421498,1.7,5.885025777,3503.287596,1.094651619,3584.246493,0.806248582,1664.033771,21.9283563,49.7363822
2,NCCc1ccccc1Cl,ConformerEnsemble(9 conformers),1,2,11,12,2.042279437,-0.296738468,0.000880292,-0.891160009,0.365674124,0.370651802,-0.180450364,0.004977679,0.379079105,232.4235992,31.49604942,31.04078633,141.8199188,0.455263086,31.26841787,0.766626518,-0.37917069,107.0472076,110.736892,110.8774991,0.207756124,110.8071955,5.988747481,1.852308703,6.488482766,3500.90084,0.496914496,3578.887746,1.986900495,1661.931775,31.19685773,50.28343349
3,NCc1ccc(-c2ccccc2)cc1,ConformerEnsemble(4 conformers),1,2,15,16,1.726050134,-0.275623811,-0.009802043,-0.879356174,0.365957419,0.369223239,-0.206638797,0.00326582,0.367590329,220.8073775,30.90566138,30.72270175,137.0363302,0.204591059,30.81418157,0.773656066,-0.379957677,107.0437428,110.3619338,110.4979982,0.144384138,110.429966,7.128639,1.808569748,10.06648907,3494.911965,2.009317806,3574.722155,1.306165347,1659.054626,24.50149588,49.23050822
4,NC1CCOCC1,ConformerEnsemble(2 conformers),1,2,8,9,3.154506065,-0.303211678,0.004046822,-0.894177187,0.369288895,0.368747141,-0.031010088,0.000541754,0.371181863,213.7417484,31.05013128,30.97386306,137.6715286,0.076268214,31.01199717,0.763945648,-0.379521291,107.2156704,110.829289,110.8998085,0.070519566,110.8645487,5.181908143,1.985045364,3.766389547,3492.095304,1.224090365,3570.955763,0.394329537,1657.058875,39.63404316,51.93375369
5,NCc1cccc2ccccc12,ConformerEnsemble(3 conformers),1,2,13,14,1.751256887,-0.267075286,-0.019887314,-0.880405794,0.366937307,0.369164609,-0.210143,0.003515597,0.368050958,223.4480914,30.93401855,30.3536869,139.405671,0.580331644,30.64385272,0.777734725,-0.429213807,106.807428,110.0954031,110.5673098,0.631341866,110.3313565,5.655189822,1.796887292,7.079468286,3498.705843,0.898322413,3576.484395,1.832222679,1663.59863,28.94622789,50.68469736
6,NCc1ccccn1,ConformerEnsemble(3 conformers),1,2,9,10,3.366978485,-0.304860188,-0.003160173,-0.877825848,0.367795184,0.370425921,-0.221970728,0.006942688,0.369110553,231.7716669,30.83439149,30.03422755,135.4655244,1.067387999,30.43430952,0.787828462,-0.384313401,106.7013347,110.2373055,109.4049244,0.885549407,109.821115,5.68604154,1.7505709,5.960390745,3495.063558,1.189372154,3572.085847,4.066074679,1668.845932,31.27417541,49.30899441
7,NCc1cccnc1,ConformerEnsemble(3 conformers),1,2,9,10,2.7865,-0.30244,-0.00322,-0.87243,0.3667,0.36594,-0.21232,0.00076,0.57826,213.0873,30.8994,30.8553,138.9523,0.0441,30.87735,0.7762,-0.38415,106.709,110.392,110.538,0.146,110.465,4.87203638,1.7,5.987965019,3493.7978,1.8446,3571.3233,1.9246,1666.9311,26.6236,48.0505409
8,NC(Cc1ccccc1)c1ccccc1,ConformerEnsemble(15 conformers),1,2,16,17,1.576678258,-0.291817721,-0.000200629,-0.886175931,0.373770725,0.3737144,-0.030119698,0.00340973,0.373742562,215.0153625,30.77038181,30.66666376,123.595058,0.237643995,30.71852278,0.765657865,-0.381634876,107.6097319,110.5349826,110.6404294,0.205972346,110.587706,7.000787901,2.112935897,6.679199069,3498.188418,1.216937475,3578.940931,2.880312768,1655.721904,36.80007338,55.52883343
9,COc1ccc([C@@H](C)N)cc1,ConformerEnsemble(5 conformers),3,2,16,17,2.343045499,-0.270607463,0.000352509,-0.885528159,0.36643776,0.370656609,-0.043040429,0.004688843,0.368547184,205.9860329,30.66049721,30.82717326,131.2682127,0.179049465,30.74383524,0.771143785,-0.380734757,107.1869237,110.5545677,110.4516524,0.152457385,110.5031101,6.082054458,2.003152874,8.012300139,3492.590931,1.559696702,3572.930824,0.558994878,1655.156103,53.40589563,52.86632354
10,N[C@H]1CCCC[C@@H]1OCc1ccccc1,ConformerEnsemble(49 conformers),1,2,16,17,2.575847911,-0.297763345,0.001594435,-0.887146555,0.36410079,0.373916771,-0.042645721,0.009815982,0.36900878,218.883626,31.93937226,30.02020611,128.6522323,1.919166151,30.97978918,0.787818547,-0.378381399,106.98697,110.228743,109.165646,1.070580126,109.6971945,6.276919102,2.011602607,8.234450634,3490.343543,2.433137712,3570.771498,4.067975812,1654.100047,37.68560771,53.11201459
11,NCc1cccs1,ConformerEnsemble(4 conformers),1,2,8,9,1.649551771,-0.283966399,0.000957865,-0.873810609,0.367780711,0.367962725,-0.228858801,0.002124774,0.367871718,213.1023524,30.61520267,30.83539163,143.0553488,0.220188955,30.72529715,0.775291203,-0.384524758,106.9164797,110.6790491,110.1469921,0.532057016,110.4130206,4.969620909,1.732529755,5.78180733,3498.029066,1.297236774,3576.485073,2.419388185,1666.169822,27.35344975,48.36164415
12,NCc1ccc(C(F)(F)F)cc1,ConformerEnsemble(5 conformers),1,2,13,14,3.123235666,-0.305652398,-0.007264149,-0.873835789,0.368875495,0.367221781,-0.211283859,0.001653715,0.368048638,217.4213776,30.78216683,30.88711329,136.600974,0.104946468,30.83464006,0.770831788,-0.384381178,106.9681119,110.6285341,110.6124827,0.016051382,110.6205084,6.306523922,1.744693151,7.683018069,3497.198077,1.967042945,3576.18858,2.166161115,1666.270835,31.40996999,48.68090495
13,NCc1cc(C(F)(F)F)ccc1Cl,ConformerEnsemble(9 conformers),1,2,14,15,3.000443063,-0.315348037,-0.014427252,-0.880660402,0.367869046,0.375814165,-0.205574554,0.007945119,0.371841605,230.4414089,30.70508561,30.67380348,139.1816815,0.18806778,30.68944455,0.770797394,-0.389063123,107.298945,110.5140216,110.415639,0.141904435,110.4648303,5.972255358,1.925841458,7.204349037,3500.333536,0.694396022,3580.397126,3.029892443,1661.291581,23.46627543,50.21385295
14,COc1ccccc1CN,ConformerEnsemble(2 conformers),1,2,11,12,3.155287688,-0.276232352,0.000329008,-0.879818631,0.370357863,0.364166105,-0.207507832,0.006191759,0.367261984,227.4933976,30.08775249,31.20298355,140.9683193,1.115231053,30.64536802,0.785059712,-0.380413098,107.046272,109.4988252,110.1574305,0.658605291,109.8281279,5.56217072,1.746078034,6.007450925,3498.603283,0.795877141,3578.306538,3.59065249,1662.699373,25.75979265,50.23412992
15,NC1CCCC1,ConformerEnsemble(1 conformers),1,2,7,8,1.7994,-0.29959,0.00315,-0.89476,0.36096,0.36745,-0.03734,0.00649,0.364205,217.0759,30.9656,31.4525,128.1818,0.4869,31.20905,0.7671,-0.37405,106.873,111.043,110.679,0.364,110.861,4.26616995,1.925297439,4.16982193,3491.6191,0.9649,3569.2888,0.3358,1659.8304,31.6462,52.31628355
